[gd_scene load_steps=2 format=2]

[ext_resource path="res://GroundTileSet.tres" type="TileSet" id=1]

[node name="TileMap" type="TileMap"]
tile_set = ExtResource( 1 )
cell_size = Vector2( 16, 16 )
collision_mask = 2
format = 1
