[gd_scene load_steps=9 format=2]

[ext_resource path="res://AudioAssets/OGPC-Slider-Background.png" type="Texture" id=1]
[ext_resource path="res://AudioAssets/OGPC-Slider-Tick.png" type="Texture" id=2]
[ext_resource path="res://Fonts/PTMono-Regular.ttf" type="DynamicFontData" id=3]
[ext_resource path="res://Slider.gd" type="Script" id=4]

[sub_resource type="StyleBoxTexture" id=1]
texture = ExtResource( 1 )
region_rect = Rect2( 0, 0, 128, 8 )

[sub_resource type="StyleBoxTexture" id=2]

[sub_resource type="StyleBoxTexture" id=3]

[sub_resource type="DynamicFont" id=4]
size = 18
outline_color = Color( 2, 2, 2, 1 )
font_data = ExtResource( 3 )

[node name="Slider" type="Node2D"]
script = ExtResource( 4 )

[node name="HSlider" type="HSlider" parent="."]
margin_left = 19.0
margin_top = -1.0
margin_right = 147.0
margin_bottom = 11.0
custom_icons/grabber_highlight = ExtResource( 2 )
custom_icons/grabber = ExtResource( 2 )
custom_styles/slider = SubResource( 1 )
custom_styles/grabber_area_highlight = SubResource( 2 )
custom_styles/grabber_area = SubResource( 3 )
value = 100.0
allow_greater = true
allow_lesser = true

[node name="Label" type="Label" parent="."]
modulate = Color( 2, 2, 2, 1 )
margin_left = -9.0
margin_top = -6.0
margin_right = 26.0
margin_bottom = 23.0
rect_pivot_offset = Vector2( 0, -44 )
custom_fonts/font = SubResource( 4 )
text = "0%"

[node name="Label2" type="Label" parent="."]
modulate = Color( 2, 2, 2, 1 )
margin_left = 148.0
margin_top = -6.0
margin_right = 192.0
margin_bottom = 23.0
rect_pivot_offset = Vector2( -179, -41 )
custom_fonts/font = SubResource( 4 )
text = "100%"
